<pre>
Aquarius-Sadalmelik



AuAg ____ AgAu ____ FePb HgCu ____ SnSn ____ CuHg PbFe ____ 
SnSn ____ CuHg PbFe ____ AuAg ____ AgAu ____ FePb HgCu ____ 
AgAu ____ FePb HgCu ____ SnSn ____ CuHg PbFe ____ AuAg ____ 
CuHg PbFe ____ AuAg ____ AgAu ____ FePb HgCu ____ SnSn ____ 
FePb HgCu ____ SnSn ____ CuHg PbFe ____ AuAg ____ AgAu ____ 
____ AuAg ____ AgAu ____ FePb HgCu ____ SnSn ____ CuHg PbFe 
____ SnSn ____ CuHg PbFe ____ AuAg ____ AgAu ____ FePb HgCu 



AuSn ____ ____ TiFe FeTi HgAg ____ SnAu ____ CuPb PbCu ____ 
SnAu ____ CuPb PbCu ____ AuSn ____ ____ TiFe FeTi HgAg ____ 
____ TiFe FeTi HgAg ____ SnAu ____ CuPb PbCu ____ AuSn ____ 
CuPb PbCu ____ AuSn ____ ____ TiFe FeTi HgAg ____ SnAu ____ 
FeTi HgAg ____ SnAu ____ CuPb PbCu ____ AuSn ____ ____ TiFe 
____ AuSn ____ ____ TiFe FeTi HgAg ____ SnAu ____ CuPb PbCu 
____ SnAu ____ CuPb PbCu ____ AuSn ____ ____ TiFe FeTi HgAg 



AuSn ____ AgHg TiFe FeTi ____ ____ SnAu ____ CuPb PbCu ____ 
SnAu ____ CuPb PbCu ____ AuSn ____ AgHg TiFe FeTi ____ ____ 
AgHg TiFe FeTi ____ ____ SnAu ____ CuPb PbCu ____ AuSn ____ 
CuPb PbCu ____ AuSn ____ AgHg TiFe FeTi ____ ____ SnAu ____ 
FeTi ____ ____ SnAu ____ CuPb PbCu ____ AuSn ____ AgHg TiFe 
____ AuSn ____ AgHg TiFe FeTi ____ ____ SnAu ____ CuPb PbCu 
____ SnAu ____ CuPb PbCu ____ AuSn ____ AgHg TiFe FeTi ____ 



____ ____ AgHg TiFe FeTi HgAg ____ SnAu ____ CuPb PbCu ____ 
SnAu ____ CuPb PbCu ____ ____ ____ AgHg TiFe FeTi HgAg ____ 
AgHg TiFe FeTi HgAg ____ SnAu ____ CuPb PbCu ____ ____ ____ 
CuPb PbCu ____ ____ ____ AgHg TiFe FeTi HgAg ____ SnAu ____ 
FeTi HgAg ____ SnAu ____ CuPb PbCu ____ ____ ____ AgHg TiFe 
____ ____ ____ AgHg TiFe FeTi HgAg ____ SnAu ____ CuPb PbCu 
____ SnAu ____ CuPb PbCu ____ ____ ____ AgHg TiFe FeTi HgAg 



AuSn ____ AgHg TiFe FeTi HgAg ____ ____ ____ CuPb PbCu ____ 
____ ____ CuPb PbCu ____ AuSn ____ AgHg TiFe FeTi HgAg ____ 
AgHg TiFe FeTi HgAg ____ ____ ____ CuPb PbCu ____ AuSn ____ 
CuPb PbCu ____ AuSn ____ AgHg TiFe FeTi HgAg ____ ____ ____ 
FeTi HgAg ____ ____ ____ CuPb PbCu ____ AuSn ____ AgHg TiFe 
____ AuSn ____ AgHg TiFe FeTi HgAg ____ ____ ____ CuPb PbCu 
____ ____ ____ CuPb PbCu ____ AuSn ____ AgHg TiFe FeTi HgAg 



AuAu ____ AgPb ____ FeUr HgSn ____ SnHg UrFe ____ PbAg ____ 
SnHg UrFe ____ PbAg ____ AuAu ____ AgPb ____ FeUr HgSn ____ 
AgPb ____ FeUr HgSn ____ SnHg UrFe ____ PbAg ____ AuAu ____ 
____ PbAg ____ AuAu ____ AgPb ____ FeUr HgSn ____ SnHg UrFe 
FeUr HgSn ____ SnHg UrFe ____ PbAg ____ AuAu ____ AgPb ____ 
____ AuAu ____ AgPb ____ FeUr HgSn ____ SnHg UrFe ____ PbAg 
____ SnHg UrFe ____ PbAg ____ AuAu ____ AgPb ____ FeUr HgSn 



AuAu ____ ____ TiCu FeMn HgSn ____ SnHg MnFe CuTi ____ ____ 
SnHg MnFe CuTi ____ ____ AuAu ____ ____ TiCu FeMn HgSn ____ 
____ TiCu FeMn HgSn ____ SnHg MnFe CuTi ____ ____ AuAu ____ 
CuTi ____ ____ AuAu ____ ____ TiCu FeMn HgSn ____ SnHg MnFe 
FeMn HgSn ____ SnHg MnFe CuTi ____ ____ AuAu ____ ____ TiCu 
____ AuAu ____ ____ TiCu FeMn HgSn ____ SnHg MnFe CuTi ____ 
____ SnHg MnFe CuTi ____ ____ AuAu ____ ____ TiCu FeMn HgSn 



AuAu ____ AgPb TiCu FeMn ____ ____ ____ MnFe CuTi PbAg ____ 
____ MnFe CuTi PbAg ____ AuAu ____ AgPb TiCu FeMn ____ ____ 
AgPb TiCu FeMn ____ ____ ____ MnFe CuTi PbAg ____ AuAu ____ 
CuTi PbAg ____ AuAu ____ AgPb TiCu FeMn ____ ____ ____ MnFe 
FeMn ____ ____ ____ MnFe CuTi PbAg ____ AuAu ____ AgPb TiCu 
____ AuAu ____ AgPb TiCu FeMn ____ ____ ____ MnFe CuTi PbAg 
____ ____ MnFe CuTi PbAg ____ AuAu ____ AgPb TiCu FeMn ____ 



____ ____ AgPb TiCu FeMn ____ ____ SnHg MnFe CuTi PbAg ____ 
SnHg MnFe CuTi PbAg ____ ____ ____ AgPb TiCu FeMn ____ ____ 
AgPb TiCu FeMn ____ ____ SnHg MnFe CuTi PbAg ____ ____ ____ 
CuTi PbAg ____ ____ ____ AgPb TiCu FeMn ____ ____ SnHg MnFe 
FeMn ____ ____ SnHg MnFe CuTi PbAg ____ ____ ____ AgPb TiCu 
____ ____ ____ AgPb TiCu FeMn ____ ____ SnHg MnFe CuTi PbAg 
____ SnHg MnFe CuTi PbAg ____ ____ ____ AgPb TiCu FeMn ____ 



____ ____ AgPb TiCu FeMn HgSn ____ ____ MnFe CuTi PbAg ____ 
____ MnFe CuTi PbAg ____ ____ ____ AgPb TiCu FeMn HgSn ____ 
AgPb TiCu FeMn HgSn ____ ____ MnFe CuTi PbAg ____ ____ ____ 
CuTi PbAg ____ ____ ____ AgPb TiCu FeMn HgSn ____ ____ MnFe 
FeMn HgSn ____ ____ MnFe CuTi PbAg ____ ____ ____ AgPb TiCu 
____ ____ ____ AgPb TiCu FeMn HgSn ____ ____ MnFe CuTi PbAg 
____ ____ MnFe CuTi PbAg ____ ____ ____ AgPb TiCu FeMn HgSn 



AuHg NpFe ____ ____ FeNp HgAu ____ SnPb ____ CuUr PbSn ____ 
SnPb ____ CuUr PbSn ____ AuHg NpFe ____ ____ FeNp HgAu ____ 
____ ____ FeNp HgAu ____ SnPb ____ CuUr PbSn ____ AuHg NpFe 
CuUr PbSn ____ AuHg NpFe ____ ____ FeNp HgAu ____ SnPb ____ 
FeNp HgAu ____ SnPb ____ CuUr PbSn ____ AuHg NpFe ____ ____ 
____ AuHg NpFe ____ ____ FeNp HgAu ____ SnPb ____ CuUr PbSn 
____ SnPb ____ CuUr PbSn ____ AuHg NpFe ____ ____ FeNp HgAu 



AuHg NpFe ____ ____ FeNp HgAu ____ SnPb UrCu ____ PbSn ____ 
SnPb UrCu ____ PbSn ____ AuHg NpFe ____ ____ FeNp HgAu ____ 
____ ____ FeNp HgAu ____ SnPb UrCu ____ PbSn ____ AuHg NpFe 
____ PbSn ____ AuHg NpFe ____ ____ FeNp HgAu ____ SnPb UrCu 
FeNp HgAu ____ SnPb UrCu ____ PbSn ____ AuHg NpFe ____ ____ 
____ AuHg NpFe ____ ____ FeNp HgAu ____ SnPb UrCu ____ PbSn 
____ SnPb UrCu ____ PbSn ____ AuHg NpFe ____ ____ FeNp HgAu 



____ NpFe ____ TiAg FeNp HgAu ____ SnPb ____ CuUr PbSn ____ 
SnPb ____ CuUr PbSn ____ ____ NpFe ____ TiAg FeNp HgAu ____ 
____ TiAg FeNp HgAu ____ SnPb ____ CuUr PbSn ____ ____ NpFe 
CuUr PbSn ____ ____ NpFe ____ TiAg FeNp HgAu ____ SnPb ____ 
FeNp HgAu ____ SnPb ____ CuUr PbSn ____ ____ NpFe ____ TiAg 
____ ____ NpFe ____ TiAg FeNp HgAu ____ SnPb ____ CuUr PbSn 
____ SnPb ____ CuUr PbSn ____ ____ NpFe ____ TiAg FeNp HgAu 



AuHg NpFe AgTi ____ FeNp ____ ____ SnPb UrCu ____ PbSn ____ 
SnPb UrCu ____ PbSn ____ AuHg NpFe AgTi ____ FeNp ____ ____ 
AgTi ____ FeNp ____ ____ SnPb UrCu ____ PbSn ____ AuHg NpFe 
____ PbSn ____ AuHg NpFe AgTi ____ FeNp ____ ____ SnPb UrCu 
FeNp ____ ____ SnPb UrCu ____ PbSn ____ AuHg NpFe AgTi ____ 
____ AuHg NpFe AgTi ____ FeNp ____ ____ SnPb UrCu ____ PbSn 
____ SnPb UrCu ____ PbSn ____ AuHg NpFe AgTi ____ FeNp ____ 



AuHg NpFe ____ TiAg FeNp HgAu ____ SnPb ____ CuUr ____ ____ 
SnPb ____ CuUr ____ ____ AuHg NpFe ____ TiAg FeNp HgAu ____ 
____ TiAg FeNp HgAu ____ SnPb ____ CuUr ____ ____ AuHg NpFe 
CuUr ____ ____ AuHg NpFe ____ TiAg FeNp HgAu ____ SnPb ____ 
FeNp HgAu ____ SnPb ____ CuUr ____ ____ AuHg NpFe ____ TiAg 
____ AuHg NpFe ____ TiAg FeNp HgAu ____ SnPb ____ CuUr ____ 
____ SnPb ____ CuUr ____ ____ AuHg NpFe ____ TiAg FeNp HgAu 



AuHg NpFe AgTi ____ FeNp HgAu ____ ____ UrCu ____ PbSn ____ 
____ UrCu ____ PbSn ____ AuHg NpFe AgTi ____ FeNp HgAu ____ 
AgTi ____ FeNp HgAu ____ ____ UrCu ____ PbSn ____ AuHg NpFe 
____ PbSn ____ AuHg NpFe AgTi ____ FeNp HgAu ____ ____ UrCu 
FeNp HgAu ____ ____ UrCu ____ PbSn ____ AuHg NpFe AgTi ____ 
____ AuHg NpFe AgTi ____ FeNp HgAu ____ ____ UrCu ____ PbSn 
____ ____ UrCu ____ PbSn ____ AuHg NpFe AgTi ____ FeNp HgAu 



AuHg NpFe AgTi ____ FeNp HgAu ____ SnPb UrCu ____ ____ ____ 
SnPb UrCu ____ ____ ____ AuHg NpFe AgTi ____ FeNp HgAu ____ 
AgTi ____ FeNp HgAu ____ SnPb UrCu ____ ____ ____ AuHg NpFe 
____ ____ ____ AuHg NpFe AgTi ____ FeNp HgAu ____ SnPb UrCu 
FeNp HgAu ____ SnPb UrCu ____ ____ ____ AuHg NpFe AgTi ____ 
____ AuHg NpFe AgTi ____ FeNp HgAu ____ SnPb UrCu ____ ____ 
____ SnPb UrCu ____ ____ ____ AuHg NpFe AgTi ____ FeNp HgAu 



AuHg NpFe ____ TiAg FeNp HgAu ____ ____ ____ CuUr PbSn ____ 
____ ____ CuUr PbSn ____ AuHg NpFe ____ TiAg FeNp HgAu ____ 
____ TiAg FeNp HgAu ____ ____ ____ CuUr PbSn ____ AuHg NpFe 
CuUr PbSn ____ AuHg NpFe ____ TiAg FeNp HgAu ____ ____ ____ 
FeNp HgAu ____ ____ ____ CuUr PbSn ____ AuHg NpFe ____ TiAg 
____ AuHg NpFe ____ TiAg FeNp HgAu ____ ____ ____ CuUr PbSn 
____ ____ ____ CuUr PbSn ____ AuHg NpFe ____ TiAg FeNp HgAu 



AuPb NpCu ____ TiSn FePu HgHg PuFe ____ ____ CuNp ____ ____ 
____ ____ CuNp ____ ____ AuPb NpCu ____ TiSn FePu HgHg PuFe 
____ TiSn FePu HgHg PuFe ____ ____ CuNp ____ ____ AuPb NpCu 
CuNp ____ ____ AuPb NpCu ____ TiSn FePu HgHg PuFe ____ ____ 
FePu HgHg PuFe ____ ____ CuNp ____ ____ AuPb NpCu ____ TiSn 
____ AuPb NpCu ____ TiSn FePu HgHg PuFe ____ ____ CuNp ____ 
PuFe ____ ____ CuNp ____ ____ AuPb NpCu ____ TiSn FePu HgHg 



____ NpCu ____ ____ FePu HgHg PuFe SnTi ____ CuNp PbAu ____ 
SnTi ____ CuNp PbAu ____ ____ NpCu ____ ____ FePu HgHg PuFe 
____ ____ FePu HgHg PuFe SnTi ____ CuNp PbAu ____ ____ NpCu 
CuNp PbAu ____ ____ NpCu ____ ____ FePu HgHg PuFe SnTi ____ 
FePu HgHg PuFe SnTi ____ CuNp PbAu ____ ____ NpCu ____ ____ 
____ ____ NpCu ____ ____ FePu HgHg PuFe SnTi ____ CuNp PbAu 
PuFe SnTi ____ CuNp PbAu ____ ____ NpCu ____ ____ FePu HgHg 



AuPb NpCu ____ ____ FePu ____ PuFe SnTi ____ CuNp PbAu ____ 
SnTi ____ CuNp PbAu ____ AuPb NpCu ____ ____ FePu ____ PuFe 
____ ____ FePu ____ PuFe SnTi ____ CuNp PbAu ____ AuPb NpCu 
CuNp PbAu ____ AuPb NpCu ____ ____ FePu ____ PuFe SnTi ____ 
FePu ____ PuFe SnTi ____ CuNp PbAu ____ AuPb NpCu ____ ____ 
____ AuPb NpCu ____ ____ FePu ____ PuFe SnTi ____ CuNp PbAu 
PuFe SnTi ____ CuNp PbAu ____ AuPb NpCu ____ ____ FePu ____ 



AuPb NpCu ____ TiSn FePu ____ PuFe ____ ____ CuNp PbAu ____ 
____ ____ CuNp PbAu ____ AuPb NpCu ____ TiSn FePu ____ PuFe 
____ TiSn FePu ____ PuFe ____ ____ CuNp PbAu ____ AuPb NpCu 
CuNp PbAu ____ AuPb NpCu ____ TiSn FePu ____ PuFe ____ ____ 
FePu ____ PuFe ____ ____ CuNp PbAu ____ AuPb NpCu ____ TiSn 
____ AuPb NpCu ____ TiSn FePu ____ PuFe ____ ____ CuNp PbAu 
PuFe ____ ____ CuNp PbAu ____ AuPb NpCu ____ TiSn FePu ____ 



AuPb ____ AgUr ____ FePu HgHg PuFe ____ ____ CuNp PbAu ____ 
____ ____ CuNp PbAu ____ AuPb ____ AgUr ____ FePu HgHg PuFe 
AgUr ____ FePu HgHg PuFe ____ ____ CuNp PbAu ____ AuPb ____ 
CuNp PbAu ____ AuPb ____ AgUr ____ FePu HgHg PuFe ____ ____ 
FePu HgHg PuFe ____ ____ CuNp PbAu ____ AuPb ____ AgUr ____ 
____ AuPb ____ AgUr ____ FePu HgHg PuFe ____ ____ CuNp PbAu 
PuFe ____ ____ CuNp PbAu ____ AuPb ____ AgUr ____ FePu HgHg 



AuPb NpCu ____ ____ FePu HgHg PuFe ____ ____ CuNp PbAu ____ 
____ ____ CuNp PbAu ____ AuPb NpCu ____ ____ FePu HgHg PuFe 
____ ____ FePu HgHg PuFe ____ ____ CuNp PbAu ____ AuPb NpCu 
CuNp PbAu ____ AuPb NpCu ____ ____ FePu HgHg PuFe ____ ____ 
FePu HgHg PuFe ____ ____ CuNp PbAu ____ AuPb NpCu ____ ____ 
____ AuPb NpCu ____ ____ FePu HgHg PuFe ____ ____ CuNp PbAu 
PuFe ____ ____ CuNp PbAu ____ AuPb NpCu ____ ____ FePu HgHg 



AuPb NpCu ____ ____ FePu HgHg PuFe ____ UrAg ____ PbAu ____ 
____ UrAg ____ PbAu ____ AuPb NpCu ____ ____ FePu HgHg PuFe 
____ ____ FePu HgHg PuFe ____ UrAg ____ PbAu ____ AuPb NpCu 
____ PbAu ____ AuPb NpCu ____ ____ FePu HgHg PuFe ____ UrAg 
FePu HgHg PuFe ____ UrAg ____ PbAu ____ AuPb NpCu ____ ____ 
____ AuPb NpCu ____ ____ FePu HgHg PuFe ____ UrAg ____ PbAu 
PuFe ____ UrAg ____ PbAu ____ AuPb NpCu ____ ____ FePu HgHg 



AuPb ____ AgUr ____ FePu HgHg PuFe ____ UrAg ____ PbAu ____ 
____ UrAg ____ PbAu ____ AuPb ____ AgUr ____ FePu HgHg PuFe 
AgUr ____ FePu HgHg PuFe ____ UrAg ____ PbAu ____ AuPb ____ 
____ PbAu ____ AuPb ____ AgUr ____ FePu HgHg PuFe ____ UrAg 
FePu HgHg PuFe ____ UrAg ____ PbAu ____ AuPb ____ AgUr ____ 
____ AuPb ____ AgUr ____ FePu HgHg PuFe ____ UrAg ____ PbAu 
PuFe ____ UrAg ____ PbAu ____ AuPb ____ AgUr ____ FePu HgHg 



AuPb ____ ____ TiSn FePu HgHg PuFe ____ UrAg ____ PbAu ____ 
____ UrAg ____ PbAu ____ AuPb ____ ____ TiSn FePu HgHg PuFe 
____ TiSn FePu HgHg PuFe ____ UrAg ____ PbAu ____ AuPb ____ 
____ PbAu ____ AuPb ____ ____ TiSn FePu HgHg PuFe ____ UrAg 
FePu HgHg PuFe ____ UrAg ____ PbAu ____ AuPb ____ ____ TiSn 
____ AuPb ____ ____ TiSn FePu HgHg PuFe ____ UrAg ____ PbAu 
PuFe ____ UrAg ____ PbAu ____ AuPb ____ ____ TiSn FePu HgHg 



AuPb ____ AgUr ____ FePu HgHg PuFe SnTi ____ ____ PbAu ____ 
SnTi ____ ____ PbAu ____ AuPb ____ AgUr ____ FePu HgHg PuFe 
AgUr ____ FePu HgHg PuFe SnTi ____ ____ PbAu ____ AuPb ____ 
____ PbAu ____ AuPb ____ AgUr ____ FePu HgHg PuFe SnTi ____ 
FePu HgHg PuFe SnTi ____ ____ PbAu ____ AuPb ____ AgUr ____ 
____ AuPb ____ AgUr ____ FePu HgHg PuFe SnTi ____ ____ PbAu 
PuFe SnTi ____ ____ PbAu ____ AuPb ____ AgUr ____ FePu HgHg 



AuPb ____ ____ TiSn FePu HgHg PuFe ____ ____ CuNp PbAu ____ 
____ ____ CuNp PbAu ____ AuPb ____ ____ TiSn FePu HgHg PuFe 
____ TiSn FePu HgHg PuFe ____ ____ CuNp PbAu ____ AuPb ____ 
CuNp PbAu ____ AuPb ____ ____ TiSn FePu HgHg PuFe ____ ____ 
FePu HgHg PuFe ____ ____ CuNp PbAu ____ AuPb ____ ____ TiSn 
____ AuPb ____ ____ TiSn FePu HgHg PuFe ____ ____ CuNp PbAu 
PuFe ____ ____ CuNp PbAu ____ AuPb ____ ____ TiSn FePu HgHg 



AuPb NpCu ____ ____ FePu HgHg PuFe SnTi ____ ____ PbAu ____ 
SnTi ____ ____ PbAu ____ AuPb NpCu ____ ____ FePu HgHg PuFe 
____ ____ FePu HgHg PuFe SnTi ____ ____ PbAu ____ AuPb NpCu 
____ PbAu ____ AuPb NpCu ____ ____ FePu HgHg PuFe SnTi ____ 
FePu HgHg PuFe SnTi ____ ____ PbAu ____ AuPb NpCu ____ ____ 
____ AuPb NpCu ____ ____ FePu HgHg PuFe SnTi ____ ____ PbAu 
PuFe SnTi ____ ____ PbAu ____ AuPb NpCu ____ ____ FePu HgHg 



____ NpCu ____ TiSn FePu HgHg PuFe ____ ____ CuNp PbAu ____ 
____ ____ CuNp PbAu ____ ____ NpCu ____ TiSn FePu HgHg PuFe 
____ TiSn FePu HgHg PuFe ____ ____ CuNp PbAu ____ ____ NpCu 
CuNp PbAu ____ ____ NpCu ____ TiSn FePu HgHg PuFe ____ ____ 
FePu HgHg PuFe ____ ____ CuNp PbAu ____ ____ NpCu ____ TiSn 
____ ____ NpCu ____ TiSn FePu HgHg PuFe ____ ____ CuNp PbAu 
PuFe ____ ____ CuNp PbAu ____ ____ NpCu ____ TiSn FePu HgHg 



AuPb NpCu ____ ____ FePu HgHg PuFe SnTi ____ CuNp ____ ____ 
SnTi ____ CuNp ____ ____ AuPb NpCu ____ ____ FePu HgHg PuFe 
____ ____ FePu HgHg PuFe SnTi ____ CuNp ____ ____ AuPb NpCu 
CuNp ____ ____ AuPb NpCu ____ ____ FePu HgHg PuFe SnTi ____ 
FePu HgHg PuFe SnTi ____ CuNp ____ ____ AuPb NpCu ____ ____ 
____ AuPb NpCu ____ ____ FePu HgHg PuFe SnTi ____ CuNp ____ 
PuFe SnTi ____ CuNp ____ ____ AuPb NpCu ____ ____ FePu HgHg 



AuPb NpCu ____ ____ FePu HgHg PuFe SnTi UrAg ____ ____ ____ 
SnTi UrAg ____ ____ ____ AuPb NpCu ____ ____ FePu HgHg PuFe 
____ ____ FePu HgHg PuFe SnTi UrAg ____ ____ ____ AuPb NpCu 
____ ____ ____ AuPb NpCu ____ ____ FePu HgHg PuFe SnTi UrAg 
FePu HgHg PuFe SnTi UrAg ____ ____ ____ AuPb NpCu ____ ____ 
____ AuPb NpCu ____ ____ FePu HgHg PuFe SnTi UrAg ____ ____ 
PuFe SnTi UrAg ____ ____ ____ AuPb NpCu ____ ____ FePu HgHg 



____ ____ AgUr TiSn FePu HgHg PuFe ____ ____ CuNp PbAu ____ 
____ ____ CuNp PbAu ____ ____ ____ AgUr TiSn FePu HgHg PuFe 
AgUr TiSn FePu HgHg PuFe ____ ____ CuNp PbAu ____ ____ ____ 
CuNp PbAu ____ ____ ____ AgUr TiSn FePu HgHg PuFe ____ ____ 
FePu HgHg PuFe ____ ____ CuNp PbAu ____ ____ ____ AgUr TiSn 
____ ____ ____ AgUr TiSn FePu HgHg PuFe ____ ____ CuNp PbAu 
PuFe ____ ____ CuNp PbAu ____ ____ ____ AgUr TiSn FePu HgHg 



AuPb ____ ____ TiSn FePu HgHg PuFe SnTi ____ ____ PbAu ____ 
SnTi ____ ____ PbAu ____ AuPb ____ ____ TiSn FePu HgHg PuFe 
____ TiSn FePu HgHg PuFe SnTi ____ ____ PbAu ____ AuPb ____ 
____ PbAu ____ AuPb ____ ____ TiSn FePu HgHg PuFe SnTi ____ 
FePu HgHg PuFe SnTi ____ ____ PbAu ____ AuPb ____ ____ TiSn 
____ AuPb ____ ____ TiSn FePu HgHg PuFe SnTi ____ ____ PbAu 
PuFe SnTi ____ ____ PbAu ____ AuPb ____ ____ TiSn FePu HgHg 



AuUr ____ ____ TiHg FeFe HgTi ____ SnNp UrAu ____ PbPb ____ 
SnNp UrAu ____ PbPb ____ AuUr ____ ____ TiHg FeFe HgTi ____ 
____ TiHg FeFe HgTi ____ SnNp UrAu ____ PbPb ____ AuUr ____ 
____ PbPb ____ AuUr ____ ____ TiHg FeFe HgTi ____ SnNp UrAu 
FeFe HgTi ____ SnNp UrAu ____ PbPb ____ AuUr ____ ____ TiHg 
____ AuUr ____ ____ TiHg FeFe HgTi ____ SnNp UrAu ____ PbPb 
____ SnNp UrAu ____ PbPb ____ AuUr ____ ____ TiHg FeFe HgTi 



AuUr NpSn ____ TiHg FeFe HgTi ____ ____ UrAu ____ PbPb ____ 
____ UrAu ____ PbPb ____ AuUr NpSn ____ TiHg FeFe HgTi ____ 
____ TiHg FeFe HgTi ____ ____ UrAu ____ PbPb ____ AuUr NpSn 
____ PbPb ____ AuUr NpSn ____ TiHg FeFe HgTi ____ ____ UrAu 
FeFe HgTi ____ ____ UrAu ____ PbPb ____ AuUr NpSn ____ TiHg 
____ AuUr NpSn ____ TiHg FeFe HgTi ____ ____ UrAu ____ PbPb 
____ ____ UrAu ____ PbPb ____ AuUr NpSn ____ TiHg FeFe HgTi 



AuUr NpSn ____ TiHg FeFe HgTi ____ SnNp UrAu ____ ____ ____ 
SnNp UrAu ____ ____ ____ AuUr NpSn ____ TiHg FeFe HgTi ____ 
____ TiHg FeFe HgTi ____ SnNp UrAu ____ ____ ____ AuUr NpSn 
____ ____ ____ AuUr NpSn ____ TiHg FeFe HgTi ____ SnNp UrAu 
FeFe HgTi ____ SnNp UrAu ____ ____ ____ AuUr NpSn ____ TiHg 
____ AuUr NpSn ____ TiHg FeFe HgTi ____ SnNp UrAu ____ ____ 
____ SnNp UrAu ____ ____ ____ AuUr NpSn ____ TiHg FeFe HgTi 



AuNp NpAu ____ ____ FeCu HgMn ____ ____ MnHg CuFe PbTi ____ 
____ MnHg CuFe PbTi ____ AuNp NpAu ____ ____ FeCu HgMn ____ 
____ ____ FeCu HgMn ____ ____ MnHg CuFe PbTi ____ AuNp NpAu 
CuFe PbTi ____ AuNp NpAu ____ ____ FeCu HgMn ____ ____ MnHg 
FeCu HgMn ____ ____ MnHg CuFe PbTi ____ AuNp NpAu ____ ____ 
____ AuNp NpAu ____ ____ FeCu HgMn ____ ____ MnHg CuFe PbTi 
____ ____ MnHg CuFe PbTi ____ AuNp NpAu ____ ____ FeCu HgMn 



AuNp NpAu ____ TiPb FeCu HgMn ____ ____ MnHg CuFe ____ ____ 
____ MnHg CuFe ____ ____ AuNp NpAu ____ TiPb FeCu HgMn ____ 
____ TiPb FeCu HgMn ____ ____ MnHg CuFe ____ ____ AuNp NpAu 
CuFe ____ ____ AuNp NpAu ____ TiPb FeCu HgMn ____ ____ MnHg 
FeCu HgMn ____ ____ MnHg CuFe ____ ____ AuNp NpAu ____ TiPb 
____ AuNp NpAu ____ TiPb FeCu HgMn ____ ____ MnHg CuFe ____ 
____ ____ MnHg CuFe ____ ____ AuNp NpAu ____ TiPb FeCu HgMn 



AuNp ____ ____ TiPb FeCu HgMn ____ ____ MnHg CuFe PbTi ____ 
____ MnHg CuFe PbTi ____ AuNp ____ ____ TiPb FeCu HgMn ____ 
____ TiPb FeCu HgMn ____ ____ MnHg CuFe PbTi ____ AuNp ____ 
CuFe PbTi ____ AuNp ____ ____ TiPb FeCu HgMn ____ ____ MnHg 
FeCu HgMn ____ ____ MnHg CuFe PbTi ____ AuNp ____ ____ TiPb 
____ AuNp ____ ____ TiPb FeCu HgMn ____ ____ MnHg CuFe PbTi 
____ ____ MnHg CuFe PbTi ____ AuNp ____ ____ TiPb FeCu HgMn 



____ NpAu ____ TiPb FeCu HgMn ____ ____ MnHg CuFe PbTi ____ 
____ MnHg CuFe PbTi ____ ____ NpAu ____ TiPb FeCu HgMn ____ 
____ TiPb FeCu HgMn ____ ____ MnHg CuFe PbTi ____ ____ NpAu 
CuFe PbTi ____ ____ NpAu ____ TiPb FeCu HgMn ____ ____ MnHg 
FeCu HgMn ____ ____ MnHg CuFe PbTi ____ ____ NpAu ____ TiPb 
____ ____ NpAu ____ TiPb FeCu HgMn ____ ____ MnHg CuFe PbTi 
____ ____ MnHg CuFe PbTi ____ ____ NpAu ____ TiPb FeCu HgMn 



Copyright (c) 2015-2016 Reid Netterville III
</pre>
